Data for detector and source/detector/ADS00002.CSV

Record Length,4096,,Source,CH1
Sample Interval,0.0000073242181,,Second,Volt
Vertical Units,CH1:V,,-0.020480000000,0.00064
Vertical Scale,CH1:0.00,,-0.020469998438,0.00080
Vertical Offset,CH1:0.00368,,-0.020459998438,0.00072
Horizontal Units,s,,-0.020450000000,0.00080
Horizontal Scale,0.0025000000,,-0.020439998438,0.00072
Model Number,ADS1102C,,-0.020429998438,0.00104
Serial Number,01010100103011,,-0.020419998438,0.00088
Software Version,2.07.02.10,,-0.020410000000,0.00056
,,,-0.020399998438,0.00056
,,,-0.020389998438,0.00088
,,,-0.020380000000,0.00056
,,,-0.020369998438,0.00088
,,,-0.020359998438,0.00064
,,,-0.020350000000,0.00056
,,,-0.020340000000,0.00056
,,,-0.020329998438,0.00072
,,,-0.020319998438,0.00080
,,,-0.020310000000,0.00088
,,,-0.020299998438,0.00072
,,,-0.020289998438,0.00088
,,,-0.020280000000,0.00056
,,,-0.020270000000,0.00080
,,,-0.020259998438,0.00072
,,,-0.020250000000,0.00056
,,,-0.020240000000,0.00056
,,,-0.020229998438,0.00072
,,,-0.020219998438,0.00072
,,,-0.020210000000,0.00088
,,,-0.020199998438,0.00064
,,,-0.020189998438,0.00072
,,,-0.020180000000,0.00072
,,,-0.020170000000,0.00064
,,,-0.020159998438,0.00064
,,,-0.020150000000,0.00064
,,,-0.020140000000,0.00056
,,,-0.020129998438,0.00072
,,,-0.020119998438,0.00056
,,,-0.020110000000,0.00072
,,,-0.020100000000,0.00056
,,,-0.020089998438,0.00080
,,,-0.020080000000,0.00064
,,,-0.020070000000,0.00056
,,,-0.020059998438,0.00064
,,,-0.020050000000,0.00072
,,,-0.020040000000,0.00072
,,,-0.020030000000,0.00072
,,,-0.020019998438,0.00080
,,,-0.020010000000,0.00056
,,,-0.020000000000,0.00056
,,,-0.019989998438,0.00080
,,,-0.019980000000,0.00080
,,,-0.019970000000,0.00072
,,,-0.019960000000,0.00072
,,,-0.019950000000,0.00072
,,,-0.019940000000,0.00072
,,,-0.019930000000,0.00072
,,,-0.019919998438,0.00056
,,,-0.019910000000,0.00080
,,,-0.019900000000,0.00056
,,,-0.019889998438,0.00088
,,,-0.019880000000,0.00072
,,,-0.019870000000,0.00072
,,,-0.019860000000,0.00048
,,,-0.019850000000,0.00072
,,,-0.019840000000,0.00072
,,,-0.019830000000,0.00072
,,,-0.019819998438,0.00080
,,,-0.019810000000,0.00088
,,,-0.019800000000,0.00056
,,,-0.019790000000,0.00072
,,,-0.019780000000,0.00072
,,,-0.019770000000,0.00064
,,,-0.019760000000,0.00048
,,,-0.019750001563,0.00088
,,,-0.019740000000,0.00064
,,,-0.019730000000,0.00072
,,,-0.019720000000,0.00064
,,,-0.019710000000,0.00064
,,,-0.019700000000,0.00072
,,,-0.019690000000,0.00056
,,,-0.019680001563,0.00064
,,,-0.019670000000,0.00080
,,,-0.019660000000,0.00048
,,,-0.019650001563,0.00080
,,,-0.019640000000,0.00064
,,,-0.019630000000,0.00064
,,,-0.019620000000,0.00056
,,,-0.019610000000,0.00072
,,,-0.019600000000,0.00064
,,,-0.019590000000,0.00080
,,,-0.019580001563,0.00056
,,,-0.019570000000,0.00072
,,,-0.019560000000,0.00072
,,,-0.019550001563,0.00072
,,,-0.019540000000,0.00072
,,,-0.019530000000,0.00056
,,,-0.019520000000,0.00072
,,,-0.019510001563,0.00088
,,,-0.019500000000,0.00072
,,,-0.019489998438,0.00088
,,,-0.019480000000,0.00056
,,,-0.019469998438,0.00088
,,,-0.019459998438,0.00056
,,,-0.019450000000,0.00072
,,,-0.019439998438,0.00072
,,,-0.019429998438,0.00064
,,,-0.019419998438,0.00072
,,,-0.019410000000,0.00072
,,,-0.019399998438,0.00056
,,,-0.019389998438,0.00080
,,,-0.019380000000,0.00056
,,,-0.019369998438,0.00080
,,,-0.019359998438,0.00056
,,,-0.019350000000,0.00072
,,,-0.019339998438,0.00056
,,,-0.019329998438,0.00088
,,,-0.019319998438,0.00064
,,,-0.019310000000,0.00072
,,,-0.019299998438,0.00072
,,,-0.019289998438,0.00080
,,,-0.019280000000,0.00056
,,,-0.019269998438,0.00072
,,,-0.019259998438,0.00080
,,,-0.019250000000,0.00072
,,,-0.019240000000,0.00056
,,,-0.019229998438,0.00072
,,,-0.019219998438,0.00072
,,,-0.019210000000,0.00072
,,,-0.019199998438,0.00064
,,,-0.019189998438,0.00064
,,,-0.019180000000,0.00056
,,,-0.019170000000,0.00080
,,,-0.019159998438,0.00064
,,,-0.019150000000,0.00080
,,,-0.019140000000,0.00056
,,,-0.019129998438,0.00056
,,,-0.019119998438,0.00048
,,,-0.019110000000,0.00072
,,,-0.019100000000,0.00064
,,,-0.019089998438,0.00080
,,,-0.019080000000,0.00080
,,,-0.019070000000,0.00064
,,,-0.019059998438,0.00056
,,,-0.019050000000,0.00056
,,,-0.019040000000,0.00064
,,,-0.019029998438,0.00088
,,,-0.019019998438,0.00064
,,,-0.019010000000,0.00072
,,,-0.019000000000,0.00072
,,,-0.018989998438,0.00072
,,,-0.018980000000,0.00056
,,,-0.018970000000,0.00072
,,,-0.018959998438,0.00072
,,,-0.018950000000,0.00088
,,,-0.018940000000,0.00072
,,,-0.018930000000,0.00064
,,,-0.018919998438,0.00064
,,,-0.018910000000,0.00056
,,,-0.018900000000,0.00072
,,,-0.018889998438,0.00072
,,,-0.018880000000,0.00064
,,,-0.018870000000,0.00080
,,,-0.018860000000,0.00040
,,,-0.018850000000,0.00064
,,,-0.018840000000,0.00056
,,,-0.018830000000,0.00072
,,,-0.018819998438,0.00064
,,,-0.018810000000,0.00080
,,,-0.018800000000,0.00056
,,,-0.018789998438,0.00072
,,,-0.018780000000,0.00072
,,,-0.018770000000,0.00080
,,,-0.018760000000,0.00064
,,,-0.018750000000,0.00072
,,,-0.018740000000,0.00056
,,,-0.018730000000,0.00056
,,,-0.018719998438,0.00072
,,,-0.018710000000,0.00080
,,,-0.018700000000,0.00056
,,,-0.018690000000,0.00072
,,,-0.018680000000,0.00064
,,,-0.018670000000,0.00048
,,,-0.018660000000,0.00064
,,,-0.018650001563,0.00080
,,,-0.018640000000,0.00056
,,,-0.018630000000,0.00088
,,,-0.018620000000,0.00048
,,,-0.018610000000,0.00072
,,,-0.018600000000,0.00056
,,,-0.018590000000,0.00072
,,,-0.018580001563,0.00064
,,,-0.018570000000,0.00080
,,,-0.018560000000,0.00072
,,,-0.018550001563,0.00072
,,,-0.018540000000,0.00072
,,,-0.018530000000,0.00072
,,,-0.018520000000,0.00056
,,,-0.018510000000,0.00072
,,,-0.018500000000,0.00072
,,,-0.018490000000,0.00096
,,,-0.018480001563,0.00072
,,,-0.018470000000,0.00072
,,,-0.018460000000,0.00064
,,,-0.018450001563,0.00056
,,,-0.018440000000,0.00048
,,,-0.018430000000,0.00064
,,,-0.018420000000,0.00056
,,,-0.018410001563,0.00072
,,,-0.018400000000,0.00088
,,,-0.018389998438,0.00064
,,,-0.018380000000,0.00048
,,,-0.018369998438,0.00088
,,,-0.018359998438,0.00064
,,,-0.018350000000,0.00088
,,,-0.018339998438,0.00056
,,,-0.018329998438,0.00072
,,,-0.018319998438,0.00064
,,,-0.018310000000,0.00048
,,,-0.018299998438,0.00056
,,,-0.018289998438,0.00080
,,,-0.018280000000,0.00056
,,,-0.018269998438,0.00064
,,,-0.018259998438,0.00064
,,,-0.018250000000,0.00064
,,,-0.018239998438,0.00056
,,,-0.018229998438,0.00080
,,,-0.018219998438,0.00056
,,,-0.018210000000,0.00064
,,,-0.018199998438,0.00056
,,,-0.018189998438,0.00072
,,,-0.018180000000,0.00048
,,,-0.018169998438,0.00088
,,,-0.018159998438,0.00064
,,,-0.018150000000,0.00072
,,,-0.018140000000,0.00072
,,,-0.018129998438,0.00072
,,,-0.018119998438,0.00064
,,,-0.018110000000,0.00056
,,,-0.018099998438,0.00064
,,,-0.018089998438,0.00072
,,,-0.018080000000,0.00088
,,,-0.018070000000,0.00088
,,,-0.018059998438,0.00064
,,,-0.018050000000,0.00048
,,,-0.018040000000,0.00064
,,,-0.018029998438,0.00080
,,,-0.018019998438,0.00056
,,,-0.018010000000,0.00072
,,,-0.018000000000,0.00072
,,,-0.017989998438,0.00080
,,,-0.017980000000,0.00048
,,,-0.017970000000,0.00072
,,,-0.017959998438,0.00056
,,,-0.017950000000,0.00072
,,,-0.017940000000,0.00080
,,,-0.017929998438,0.00072
,,,-0.017919998438,0.00056
,,,-0.017910000000,0.00072
,,,-0.017900000000,0.00080
,,,-0.017889998438,0.00088
,,,-0.017880000000,0.00072
,,,-0.017870000000,0.00080
,,,-0.017859998438,0.00072
,,,-0.017850000000,0.00072
,,,-0.017840000000,0.00072
,,,-0.017830000000,0.00072
,,,-0.017819998438,0.00072
,,,-0.017810000000,0.00072
,,,-0.017800000000,0.00072
,,,-0.017789998438,0.00072
,,,-0.017780000000,0.00056
,,,-0.017770000000,0.00072
,,,-0.017760000000,0.00072
,,,-0.017750000000,0.00072
,,,-0.017740000000,0.00064
,,,-0.017730000000,0.00056
,,,-0.017719998438,0.00064
,,,-0.017710000000,0.00056
,,,-0.017700000000,0.00072
,,,-0.017689998438,0.00080
,,,-0.017680000000,0.00064
,,,-0.017670000000,0.00072
,,,-0.017660000000,0.00072
,,,-0.017650000000,0.00072
,,,-0.017640000000,0.00064
,,,-0.017630000000,0.00072
,,,-0.017619998438,0.00056
,,,-0.017610000000,0.00064
,,,-0.017600000000,0.00056
,,,-0.017590000000,0.00072
,,,-0.017580000000,0.00072
,,,-0.017570000000,0.00048
,,,-0.017560000000,0.00072
,,,-0.017550001563,0.00088
,,,-0.017540000000,0.00056
,,,-0.017530000000,0.00080
,,,-0.017520000000,0.00056
,,,-0.017510000000,0.00080
,,,-0.017500000000,0.00072
,,,-0.017490000000,0.00056
,,,-0.017480001563,0.00056
,,,-0.017470000000,0.00080
,,,-0.017460000000,0.00080
,,,-0.017450001563,0.00088
,,,-0.017440000000,0.00056
,,,-0.017430000000,0.00072
,,,-0.017420000000,0.00064
,,,-0.017410001563,0.00072
,,,-0.017400000000,0.00072
,,,-0.017390000000,0.00056
,,,-0.017380001563,0.00056
,,,-0.017370000000,0.00080
,,,-0.017360000000,0.00072
,,,-0.017350001563,0.00080
,,,-0.017340000000,0.00064
,,,-0.017330000000,0.00064
,,,-0.017320000000,0.00064
,,,-0.017310001563,0.00072
,,,-0.017300000000,0.00056
,,,-0.017289998438,0.00072
,,,-0.017280000000,0.00048
,,,-0.017269998438,0.00072
,,,-0.017259998438,0.00056
,,,-0.017250000000,0.00072
,,,-0.017239998438,0.00056
,,,-0.017229998438,0.00080
,,,-0.017219998438,0.00072
,,,-0.017210000000,0.00072
,,,-0.017199998438,0.00056
,,,-0.017189998438,0.00080
,,,-0.017180000000,0.00056
,,,-0.017169998438,0.00080
,,,-0.017159998438,0.00056
,,,-0.017150000000,0.00072
,,,-0.017139998438,0.00056
,,,-0.017129998438,0.00080
,,,-0.017119998438,0.00072
,,,-0.017110000000,0.00064
,,,-0.017099998438,0.00080
,,,-0.017089998438,0.00072
,,,-0.017080000000,0.00072
,,,-0.017069998438,0.00080
,,,-0.017059998438,0.00072
,,,-0.017050000000,0.00080
,,,-0.017040000000,0.00064
,,,-0.017029998438,0.00088
,,,-0.017019998438,0.00056
,,,-0.017010000000,0.00080
,,,-0.016999998438,0.00056
,,,-0.016989998438,0.00064
,,,-0.016980000000,0.00072
,,,-0.016970000000,0.00080
,,,-0.016959998438,0.00072
,,,-0.016950000000,0.00064
,,,-0.016940000000,0.00072
,,,-0.016929998438,0.00088
,,,-0.016919998438,0.00072
,,,-0.016910000000,0.00080
,,,-0.016900000000,0.00056
,,,-0.016889998438,0.00072
,,,-0.016880000000,0.00072
,,,-0.016870000000,0.00088
,,,-0.016859998438,0.00056
,,,-0.016850000000,0.00072
,,,-0.016840000000,0.00056
,,,-0.016829998438,0.00080
,,,-0.016819998438,0.00072
,,,-0.016810000000,0.00056
,,,-0.016800000000,0.00056
,,,-0.016789998438,0.00072
,,,-0.016780000000,0.00056
,,,-0.016770000000,0.00072
,,,-0.016759998438,0.00072
,,,-0.016750000000,0.00072
,,,-0.016740000000,0.00072
,,,-0.016730000000,0.00056
,,,-0.016719998438,0.00064
,,,-0.016710000000,0.00072
,,,-0.016700000000,0.00056
,,,-0.016689998438,0.00080
,,,-0.016680000000,0.00056
,,,-0.016670000000,0.00072
,,,-0.016660000000,0.00064
,,,-0.016650000000,0.00080
,,,-0.016640000000,0.00056
,,,-0.016630000000,0.00072
,,,-0.016619998438,0.00016
,,,-0.016610000000,0.00080
,,,-0.016600000000,0.00072
,,,-0.016589998438,0.00072
,,,-0.016580000000,0.00040
,,,-0.016570000000,0.00056
,,,-0.016560000000,0.00048
,,,-0.016550000000,0.00056
,,,-0.016540000000,0.00064
,,,-0.016530000000,0.00056
,,,-0.016519998438,0.00048
,,,-0.016510000000,0.00080
,,,-0.016500000000,0.00072
,,,-0.016490000000,0.00072
,,,-0.016480000000,0.00048
,,,-0.016470000000,0.00072
,,,-0.016460000000,0.00064
,,,-0.016450001563,0.00080
,,,-0.016440000000,0.00064
,,,-0.016430000000,0.00056
,,,-0.016420000000,0.00048
,,,-0.016410000000,0.00080
,,,-0.016400000000,0.00072
,,,-0.016390000000,0.00072
,,,-0.016380001563,0.00072
,,,-0.016370000000,0.00072
,,,-0.016360000000,0.00080
,,,-0.016350001563,0.00088
,,,-0.016340000000,0.00056
,,,-0.016330000000,0.00072
,,,-0.016320000000,0.00048
,,,-0.016310001563,0.00080
,,,-0.016300000000,0.00080
,,,-0.016290000000,0.00080
,,,-0.016280001563,0.00056
,,,-0.016270000000,0.00064
,,,-0.016260000000,0.00072
,,,-0.016250001563,0.00072
,,,-0.016240000000,0.00064
,,,-0.016230000000,0.00080
,,,-0.016220000000,0.00072
,,,-0.016210001563,0.00072
,,,-0.016200000000,0.00056
,,,-0.016189998438,0.00096
,,,-0.016180000000,0.00056
,,,-0.016169998438,0.00064
,,,-0.016159998438,0.00056
,,,-0.016150000000,0.00064
,,,-0.016139998438,0.00064
,,,-0.016129998438,0.00088
,,,-0.016119998438,0.00064
,,,-0.016110000000,0.00080
,,,-0.016099998438,0.00080
,,,-0.016089998438,0.00056
,,,-0.016080000000,0.00072
,,,-0.016069998438,0.00072
,,,-0.016059998438,0.00072
,,,-0.016050000000,0.00080
,,,-0.016039998438,0.00072
,,,-0.016029998438,0.00088
,,,-0.016019998438,0.00080
,,,-0.016010000000,0.00056
,,,-0.015999998438,0.00064
,,,-0.015989998438,0.00072
,,,-0.015980000000,0.00056
,,,-0.015969998438,0.00072
,,,-0.015959998438,0.00064
,,,-0.015950000000,0.00072
,,,-0.015940000000,0.00056
,,,-0.015929998438,0.00088
,,,-0.015919998438,0.00048
,,,-0.015910000000,0.00056
,,,-0.015899998438,0.00056
,,,-0.015889998438,0.00080
,,,-0.015880000000,0.00072
,,,-0.015870000000,0.00088
,,,-0.015859998438,0.00056
,,,-0.015850000000,0.00080
,,,-0.015840000000,0.00056
,,,-0.015829998438,0.00072
,,,-0.015819998438,0.00032
,,,-0.015810000000,0.00072
,,,-0.015800000000,0.00072
,,,-0.015789998438,0.00072
,,,-0.015780000000,0.00072
,,,-0.015770000000,0.00088
,,,-0.015759998438,0.00072
,,,-0.015750000000,0.00064
,,,-0.015740000000,0.00072
,,,-0.015729998438,0.00072
,,,-0.015719998438,0.00064
,,,-0.015710000000,0.00072
,,,-0.015700000000,0.00080
,,,-0.015689998438,0.00072
,,,-0.015680000000,0.00056
,,,-0.015670000000,0.00072
,,,-0.015659998438,0.00072
,,,-0.015650000000,0.00088
,,,-0.015640000000,0.00072
,,,-0.015630000000,0.00056
,,,-0.015620000000,0.00056
,,,-0.015609998750,0.00072
,,,-0.015600000000,0.00080
,,,-0.015590000000,0.00072
,,,-0.015580000000,0.00048
,,,-0.015570000000,0.00072
,,,-0.015560000000,0.00048
,,,-0.015550000000,0.00080
,,,-0.015540000000,0.00056
,,,-0.015530000000,0.00072
,,,-0.015520000000,0.00072
,,,-0.015509998750,0.00080
,,,-0.015500000000,0.00072
,,,-0.015490000000,0.00088
,,,-0.015480000000,0.00048
,,,-0.015470000000,0.00080
,,,-0.015460000000,0.00072
,,,-0.015450000000,0.00088
,,,-0.015440000000,0.00056
,,,-0.015430000000,0.00072
,,,-0.015420000000,0.00056
,,,-0.015410000000,0.00072
,,,-0.015400000000,0.00064
,,,-0.015389998750,0.00088
,,,-0.015379998750,0.00072
,,,-0.015369998750,0.00072
,,,-0.015360000000,0.00064
,,,-0.015349998750,0.00056
,,,-0.015340000000,0.00064
,,,-0.015329998750,0.00088
,,,-0.015319998750,0.00056
,,,-0.015309998750,0.00080
,,,-0.015299998750,0.00088
,,,-0.015290000000,0.00072
,,,-0.015279998750,0.00064
,,,-0.015270000000,0.00056
,,,-0.015260000000,0.00048
,,,-0.015249998750,0.00056
,,,-0.015240000000,0.00072
,,,-0.015229998750,0.00064
,,,-0.015220000000,0.00048
,,,-0.015209998750,0.00080
,,,-0.015199998750,0.00056
,,,-0.015190000000,0.00064
,,,-0.015179998750,0.00072
,,,-0.015170000000,0.00080
,,,-0.015160000000,0.00056
,,,-0.015150000000,0.00088
,,,-0.015140000000,0.00064
,,,-0.015129998750,0.00056
,,,-0.015120000000,0.00072
,,,-0.015109998750,0.00064
,,,-0.015100000000,0.00080
,,,-0.015090000000,0.00072
,,,-0.015079998750,0.00056
,,,-0.015070000000,0.00072
,,,-0.015060000000,0.00072
,,,-0.015050000000,0.00088
,,,-0.015040000000,0.00072
,,,-0.015030000000,0.00064
,,,-0.015020000000,0.00064
,,,-0.015009998750,0.00072
,,,-0.015000000000,0.00064
,,,-0.014990000000,0.00072
,,,-0.014980000000,0.00072
,,,-0.014970000000,0.00080
,,,-0.014959998750,0.00056
,,,-0.014950000000,0.00056
,,,-0.014939998750,0.00080
,,,-0.014930000000,0.00088
,,,-0.014920000000,0.00056
,,,-0.014910000000,0.00072
,,,-0.014900000000,0.00072
,,,-0.014890000000,0.00088
,,,-0.014880000000,0.00072
,,,-0.014870000000,0.00088
,,,-0.014860000000,0.00088
,,,-0.014850000000,0.00072
,,,-0.014840000000,0.00072
,,,-0.014830000000,0.00072
,,,-0.014820000000,0.00056
,,,-0.014810000000,0.00072
,,,-0.014800000000,0.00056
,,,-0.014790000000,0.00072
,,,-0.014780000000,0.00072
,,,-0.014770000000,0.00080
,,,-0.014760000000,0.00080
,,,-0.014750000000,0.00088
,,,-0.014740000000,0.00056
,,,-0.014730000000,0.00080
,,,-0.014720000000,0.00064
,,,-0.014710000000,0.00072
,,,-0.014699998750,0.00056
,,,-0.014690000000,0.00088
,,,-0.014679998750,0.00072
,,,-0.014670000000,0.00072
,,,-0.014659998750,0.00056
,,,-0.014649998750,0.00080
,,,-0.014639998750,0.00056
,,,-0.014629998750,0.00088
,,,-0.014620000000,0.00064
,,,-0.014609998750,0.00072
,,,-0.014600000000,0.00064
,,,-0.014590000000,0.00072
,,,-0.014579998750,0.00056
,,,-0.014570000000,0.00056
,,,-0.014559998750,0.00056
,,,-0.014550000000,0.00072
,,,-0.014539998750,0.00048
,,,-0.014529998750,0.00080
,,,-0.014520000000,0.00064
,,,-0.014509998750,0.00080
,,,-0.014500000000,0.00048
,,,-0.014490000000,0.00072
,,,-0.014480000000,0.00072
,,,-0.014470000000,0.00080
,,,-0.014459998750,0.00072
,,,-0.014450000000,0.00064
,,,-0.014439998750,0.00080
,,,-0.014430000000,0.00080
,,,-0.014420000000,0.00072
,,,-0.014409998750,0.00080
,,,-0.014400000000,0.00088
,,,-0.014390000000,0.00072
,,,-0.014380000000,0.00056
,,,-0.014370000000,0.00072
,,,-0.014360000000,0.00048
,,,-0.014350000000,0.00080
,,,-0.014339998750,0.00048
,,,-0.014330000000,0.00088
,,,-0.014320000000,0.00056
,,,-0.014310000000,0.00088
,,,-0.014300000000,0.00048
,,,-0.014290000000,0.00088
,,,-0.014280000000,0.00056
,,,-0.014270000000,0.00088
,,,-0.014260000000,0.00056
,,,-0.014250000000,0.00088
,,,-0.014240000000,0.00064
,,,-0.014230000000,0.00072
,,,-0.014220000000,0.00072
,,,-0.014210000000,0.00072
,,,-0.014200000000,0.00072
,,,-0.014190000000,0.00072
,,,-0.014180000000,0.00056
,,,-0.014170000000,0.00072
,,,-0.014160000000,0.00056
,,,-0.014150000000,0.00072
,,,-0.014140000000,0.00056
,,,-0.014130000000,0.00056
,,,-0.014120000000,0.00048
,,,-0.014110000000,0.00072
,,,-0.014099998750,0.00056
,,,-0.014090000000,0.00080
,,,-0.014079998750,0.00056
,,,-0.014070000000,0.00056
,,,-0.014059998750,0.00056
,,,-0.014050000000,0.00080
,,,-0.014039998750,0.00064
,,,-0.014029998750,0.00072
,,,-0.014020000000,0.00056
,,,-0.014009998750,0.00080
,,,-0.014000000000,0.00080
,,,-0.013990000000,0.00072
,,,-0.013979998750,0.00072
,,,-0.013970000000,0.00056
,,,-0.013959998750,0.00072
,,,-0.013950000000,0.00064
,,,-0.013939998750,0.00048
,,,-0.013930000000,0.00056
,,,-0.013920000000,0.00064
,,,-0.013909998750,0.00072
,,,-0.013900000000,0.00064
,,,-0.013890000000,0.00080
,,,-0.013880000000,0.00056
,,,-0.013870000000,0.00072
,,,-0.013859998750,0.00072
,,,-0.013850000000,0.00064
,,,-0.013839998750,0.00072
,,,-0.013830000000,0.00064
,,,-0.013820000000,0.00048
,,,-0.013810000000,0.00064
,,,-0.013800000000,0.00080
,,,-0.013790000000,0.00080
,,,-0.013780000000,0.00064
,,,-0.013770000000,0.00056
,,,-0.013760000000,0.00064
,,,-0.013750000000,0.00072
,,,-0.013740000000,0.00048
,,,-0.013730000000,0.00080
,,,-0.013720000000,0.00048
,,,-0.013710000000,0.00064
,,,-0.013700000000,0.00072
,,,-0.013690000000,0.00072
,,,-0.013680000000,0.00056
,,,-0.013670000000,0.00064
,,,-0.013660000000,0.00056
,,,-0.013650000000,0.00080
,,,-0.013640000000,0.00056
,,,-0.013630000000,0.00080
,,,-0.013620000000,0.00056
,,,-0.013610000000,0.00064
,,,-0.013599998750,0.00048
,,,-0.013590000000,0.00080
,,,-0.013579998750,0.00064
,,,-0.013570000000,0.00072
,,,-0.013559998750,0.00056
,,,-0.013549998750,0.00088
,,,-0.013539998750,0.00064
,,,-0.013529998750,0.00056
,,,-0.013520000000,0.00080
,,,-0.013509998750,0.00072
,,,-0.013500000000,0.00064
,,,-0.013490000000,0.00064
,,,-0.013479998750,0.00056
,,,-0.013470000000,0.00072
,,,-0.013459998750,0.00080
,,,-0.013450000000,0.00080
,,,-0.013439998750,0.00080
,,,-0.013429998750,0.00072
,,,-0.013420000000,0.00056
,,,-0.013409998750,0.00040
,,,-0.013400000000,0.00072
,,,-0.013390000000,0.00072
,,,-0.013380000000,0.00072
,,,-0.013370000000,0.00072
,,,-0.013359998750,0.00048
,,,-0.013350000000,0.00080
,,,-0.013339998750,0.00072
,,,-0.013330000000,0.00064
,,,-0.013320000000,0.00056
,,,-0.013309998750,0.00072
,,,-0.013300000000,0.00056
,,,-0.013290000000,0.00080
,,,-0.013280000000,0.00056
,,,-0.013270000000,0.00088
,,,-0.013260000000,0.00064
,,,-0.013250000000,0.00088
,,,-0.013239998750,0.00072
,,,-0.013230000000,0.00064
,,,-0.013220000000,0.00056
,,,-0.013210000000,0.00080
,,,-0.013200000000,0.00088
,,,-0.013190000000,0.00072
,,,-0.013180000000,0.00072
