Data for detector and source/detector/ADS00001.CSV

Record Length,3000,,Source,CH1
Sample Interval,0.0000099999994,,Second,Volt
Vertical Units,CH1:V,,-0.015000000000,-0.00160
Vertical Scale,CH1:0.00,,-0.014990000000,-0.00144
Vertical Offset,CH1:0.00368,,-0.014980000000,-0.00144
Horizontal Units,s,,-0.014970000000,-0.00144
Horizontal Scale,0.0025000000,,-0.014959998750,-0.00168
Model Number,ADS1102C,,-0.014950000000,-0.00152
Serial Number,01010100103011,,-0.014939998750,-0.00160
Software Version,2.07.02.10,,-0.014930000000,-0.00136
,,,-0.014920000000,-0.00136
,,,-0.014910000000,-0.00160
,,,-0.014900000000,-0.00168
,,,-0.014890000000,-0.00144
,,,-0.014880000000,-0.00160
,,,-0.014870000000,-0.00136
,,,-0.014860000000,-0.00168
,,,-0.014850000000,-0.00160
,,,-0.014840000000,-0.00160
,,,-0.014830000000,-0.00152
,,,-0.014820000000,-0.00160
,,,-0.014810000000,-0.00144
,,,-0.014800000000,-0.00160
,,,-0.014790000000,-0.00152
,,,-0.014780000000,-0.00144
,,,-0.014770000000,-0.00136
,,,-0.014760000000,-0.00160
,,,-0.014750000000,-0.00160
,,,-0.014740000000,-0.00144
,,,-0.014730000000,-0.00160
,,,-0.014720000000,-0.00144
,,,-0.014710000000,-0.00128
,,,-0.014699998750,-0.00160
,,,-0.014690000000,-0.00144
,,,-0.014679998750,-0.00152
,,,-0.014670000000,-0.00152
,,,-0.014659998750,-0.00176
,,,-0.014649998750,-0.00136
,,,-0.014639998750,-0.00152
,,,-0.014629998750,-0.00160
,,,-0.014620000000,-0.00152
,,,-0.014609998750,-0.00144
,,,-0.014600000000,-0.00152
,,,-0.014590000000,-0.00136
,,,-0.014579998750,-0.00160
,,,-0.014570000000,-0.00168
,,,-0.014559998750,-0.00152
,,,-0.014550000000,-0.00144
,,,-0.014539998750,-0.00152
,,,-0.014529998750,-0.00152
,,,-0.014520000000,-0.00152
,,,-0.014509998750,-0.00152
,,,-0.014500000000,-0.00168
,,,-0.014490000000,-0.00128
,,,-0.014480000000,-0.00160
,,,-0.014470000000,-0.00160
,,,-0.014459998750,-0.00160
,,,-0.014450000000,-0.00144
,,,-0.014439998750,-0.00152
,,,-0.014430000000,-0.00152
,,,-0.014420000000,-0.00144
,,,-0.014409998750,-0.00152
,,,-0.014400000000,-0.00144
,,,-0.014390000000,-0.00152
,,,-0.014380000000,-0.00160
,,,-0.014370000000,-0.00152
,,,-0.014360000000,-0.00152
,,,-0.014350000000,-0.00152
,,,-0.014339998750,-0.00160
,,,-0.014330000000,-0.00152
,,,-0.014320000000,-0.00152
,,,-0.014310000000,-0.00152
,,,-0.014300000000,-0.00160
,,,-0.014290000000,-0.00128
,,,-0.014280000000,-0.00160
,,,-0.014270000000,-0.00144
,,,-0.014260000000,-0.00168
,,,-0.014250000000,-0.00144
,,,-0.014240000000,-0.00168
,,,-0.014230000000,-0.00144
,,,-0.014220000000,-0.00168
,,,-0.014210000000,-0.00136
,,,-0.014200000000,-0.00168
,,,-0.014190000000,-0.00136
,,,-0.014180000000,-0.00144
,,,-0.014170000000,-0.00152
,,,-0.014160000000,-0.00152
,,,-0.014150000000,-0.00128
,,,-0.014140000000,-0.00160
,,,-0.014130000000,-0.00152
,,,-0.014120000000,-0.00160
,,,-0.014110000000,-0.00144
,,,-0.014099998750,-0.00152
,,,-0.014090000000,-0.00160
,,,-0.014079998750,-0.00168
,,,-0.014070000000,-0.00160
,,,-0.014059998750,-0.00152
,,,-0.014050000000,-0.00160
,,,-0.014039998750,-0.00152
,,,-0.014029998750,-0.00160
,,,-0.014020000000,-0.00160
,,,-0.014009998750,-0.00152
,,,-0.014000000000,-0.00160
,,,-0.013990000000,-0.00152
,,,-0.013979998750,-0.00160
,,,-0.013970000000,-0.00160
,,,-0.013959998750,-0.00160
,,,-0.013950000000,-0.00160
,,,-0.013939998750,-0.00160
,,,-0.013930000000,-0.00136
,,,-0.013920000000,-0.00144
,,,-0.013909998750,-0.00160
,,,-0.013900000000,-0.00176
,,,-0.013890000000,-0.00176
,,,-0.013880000000,-0.00160
,,,-0.013870000000,-0.00160
,,,-0.013859998750,-0.00160
,,,-0.013850000000,-0.00144
,,,-0.013839998750,-0.00184
,,,-0.013830000000,-0.00168
,,,-0.013820000000,-0.00144
,,,-0.013810000000,-0.00152
,,,-0.013800000000,-0.00160
,,,-0.013790000000,-0.00160
,,,-0.013780000000,-0.00160
,,,-0.013770000000,-0.00144
,,,-0.013760000000,-0.00168
,,,-0.013750000000,-0.00144
,,,-0.013740000000,-0.00144
,,,-0.013730000000,-0.00144
,,,-0.013720000000,-0.00152
,,,-0.013710000000,-0.00152
,,,-0.013700000000,-0.00160
,,,-0.013690000000,-0.00152
,,,-0.013680000000,-0.00160
,,,-0.013670000000,-0.00144
,,,-0.013660000000,-0.00168
,,,-0.013650000000,-0.00144
,,,-0.013640000000,-0.00160
,,,-0.013630000000,-0.00160
,,,-0.013620000000,-0.00168
,,,-0.013610000000,-0.00144
,,,-0.013599998750,-0.00152
,,,-0.013590000000,-0.00176
,,,-0.013579998750,-0.00152
,,,-0.013570000000,-0.00160
,,,-0.013559998750,-0.00160
,,,-0.013549998750,-0.00144
,,,-0.013539998750,-0.00160
,,,-0.013529998750,-0.00144
,,,-0.013520000000,-0.00176
,,,-0.013509998750,-0.00144
,,,-0.013500000000,-0.00152
,,,-0.013490000000,-0.00160
,,,-0.013479998750,-0.00144
,,,-0.013470000000,-0.00152
,,,-0.013459998750,-0.00152
,,,-0.013450000000,-0.00144
,,,-0.013439998750,-0.00168
,,,-0.013429998750,-0.00152
,,,-0.013420000000,-0.00144
,,,-0.013409998750,-0.00152
,,,-0.013400000000,-0.00160
,,,-0.013390000000,-0.00136
,,,-0.013380000000,-0.00160
,,,-0.013370000000,-0.00168
,,,-0.013359998750,-0.00168
,,,-0.013350000000,-0.00168
,,,-0.013339998750,-0.00160
,,,-0.013330000000,-0.00152
,,,-0.013320000000,-0.00184
,,,-0.013309998750,-0.00160
,,,-0.013300000000,-0.00160
,,,-0.013290000000,-0.00152
,,,-0.013280000000,-0.00160
,,,-0.013270000000,-0.00152
,,,-0.013260000000,-0.00168
,,,-0.013250000000,-0.00144
,,,-0.013239998750,-0.00168
,,,-0.013230000000,-0.00152
,,,-0.013220000000,-0.00160
,,,-0.013210000000,-0.00136
,,,-0.013200000000,-0.00168
,,,-0.013190000000,-0.00144
,,,-0.013180000000,-0.00160
,,,-0.013170000000,-0.00152
,,,-0.013160000000,-0.00168
,,,-0.013150000000,-0.00144
,,,-0.013140000000,-0.00168
,,,-0.013130000000,-0.00152
,,,-0.013120000000,-0.00160
,,,-0.013110000000,-0.00144
,,,-0.013100000000,-0.00176
,,,-0.013090000000,-0.00136
,,,-0.013080000000,-0.00168
,,,-0.013070000000,-0.00144
,,,-0.013060000000,-0.00160
,,,-0.013050000000,-0.00160
,,,-0.013040000000,-0.00176
,,,-0.013030000000,-0.00144
,,,-0.013020000000,-0.00152
,,,-0.013010000000,-0.00152
,,,-0.012999998750,-0.00160
,,,-0.012990000000,-0.00144
,,,-0.012979998750,-0.00176
,,,-0.012970000000,-0.00152
,,,-0.012959998750,-0.00168
,,,-0.012950000000,-0.00136
,,,-0.012939998750,-0.00168
,,,-0.012929998750,-0.00160
,,,-0.012920000000,-0.00160
,,,-0.012909998750,-0.00152
,,,-0.012900000000,-0.00152
,,,-0.012890000000,-0.00152
,,,-0.012879998750,-0.00152
,,,-0.012870000000,-0.00160
,,,-0.012859998750,-0.00160
,,,-0.012850000000,-0.00160
,,,-0.012839998750,-0.00160
,,,-0.012830000000,-0.00144
,,,-0.012820000000,-0.00160
,,,-0.012809998750,-0.00160
,,,-0.012800000000,-0.00160
,,,-0.012790000000,-0.00152
,,,-0.012780000000,-0.00160
,,,-0.012770000000,-0.00160
,,,-0.012759998750,-0.00160
,,,-0.012750000000,-0.00144
,,,-0.012739998750,-0.00160
,,,-0.012730000000,-0.00144
,,,-0.012720000000,-0.00144
,,,-0.012710000000,-0.00160
,,,-0.012700000000,-0.00168
,,,-0.012690000000,-0.00160
,,,-0.012680000000,-0.00168
,,,-0.012670000000,-0.00144
,,,-0.012660000000,-0.00152
,,,-0.012650000000,-0.00152
,,,-0.012640000000,-0.00168
,,,-0.012630000000,-0.00152
,,,-0.012620000000,-0.00160
,,,-0.012610000000,-0.00160
,,,-0.012600000000,-0.00160
,,,-0.012590000000,-0.00168
,,,-0.012580000000,-0.00168
,,,-0.012570000000,-0.00144
,,,-0.012560000000,-0.00160
,,,-0.012550000000,-0.00160
,,,-0.012540000000,-0.00152
,,,-0.012530000000,-0.00160
,,,-0.012520000000,-0.00168
,,,-0.012510000000,-0.00160
,,,-0.012499998750,-0.00160
,,,-0.012490000000,-0.00160
,,,-0.012479998750,-0.00160
,,,-0.012470000000,-0.00152
,,,-0.012459998750,-0.00152
,,,-0.012449998750,-0.00152
,,,-0.012439998750,-0.00160
,,,-0.012429998750,-0.00152
,,,-0.012420000000,-0.00168
,,,-0.012409998750,-0.00144
,,,-0.012400000000,-0.00168
,,,-0.012390000000,-0.00160
,,,-0.012379998750,-0.00160
,,,-0.012370000000,-0.00160
,,,-0.012359998750,-0.00160
,,,-0.012350000000,-0.00168
,,,-0.012339998750,-0.00152
,,,-0.012329998750,-0.00128
,,,-0.012320000000,-0.00160
,,,-0.012309998750,-0.00160
,,,-0.012300000000,-0.00152
,,,-0.012290000000,-0.00144
,,,-0.012280000000,-0.00160
,,,-0.012270000000,-0.00136
,,,-0.012259998750,-0.00160
,,,-0.012250000000,-0.00152
,,,-0.012239998750,-0.00160
,,,-0.012230000000,-0.00152
,,,-0.012220000000,-0.00168
,,,-0.012210000000,-0.00152
,,,-0.012200000000,-0.00144
,,,-0.012190000000,-0.00152
,,,-0.012180000000,-0.00152
,,,-0.012170000000,-0.00160
,,,-0.012160000000,-0.00136
,,,-0.012150000000,-0.00168
,,,-0.012139998750,-0.00152
,,,-0.012130000000,-0.00168
,,,-0.012120000000,-0.00160
,,,-0.012110000000,-0.00160
,,,-0.012100000000,-0.00152
,,,-0.012090000000,-0.00160
,,,-0.012080000000,-0.00152
,,,-0.012070000000,-0.00152
,,,-0.012060000000,-0.00160
,,,-0.012050000000,-0.00160
,,,-0.012040000000,-0.00160
,,,-0.012030000000,-0.00128
,,,-0.012020000000,-0.00144
,,,-0.012010000000,-0.00152
,,,-0.012000000000,-0.00168
,,,-0.011990000000,-0.00144
,,,-0.011980000000,-0.00152
,,,-0.011970000000,-0.00152
,,,-0.011960000000,-0.00152
,,,-0.011950000000,-0.00136
,,,-0.011940000000,-0.00168
,,,-0.011930000000,-0.00144
,,,-0.011920000000,-0.00160
,,,-0.011910000000,-0.00144
,,,-0.011899998750,-0.00176
,,,-0.011890000000,-0.00144
,,,-0.011879998750,-0.00176
,,,-0.011870000000,-0.00152
,,,-0.011859998750,-0.00168
,,,-0.011850000000,-0.00144
,,,-0.011839998750,-0.00160
,,,-0.011829998750,-0.00152
,,,-0.011820000000,-0.00160
,,,-0.011809998750,-0.00152
,,,-0.011800000000,-0.00160
,,,-0.011790000000,-0.00160
,,,-0.011779998750,-0.00144
,,,-0.011770000000,-0.00152
,,,-0.011759998750,-0.00160
,,,-0.011750000000,-0.00128
,,,-0.011739998750,-0.00160
,,,-0.011730000000,-0.00152
,,,-0.011720000000,-0.00152
,,,-0.011709998750,-0.00144
,,,-0.011700000000,-0.00168
,,,-0.011690000000,-0.00152
,,,-0.011680000000,-0.00152
,,,-0.011670000000,-0.00168
,,,-0.011660000000,-0.00176
,,,-0.011650000000,-0.00144
,,,-0.011639998750,-0.00168
,,,-0.011630000000,-0.00144
,,,-0.011620000000,-0.00152
,,,-0.011610000000,-0.00152
,,,-0.011600000000,-0.00160
,,,-0.011590000000,-0.00144
,,,-0.011580000000,-0.00168
,,,-0.011570000000,-0.00144
,,,-0.011560000000,-0.00168
,,,-0.011550000000,-0.00152
,,,-0.011540000000,-0.00144
,,,-0.011530000000,-0.00160
,,,-0.011520000000,-0.00160
,,,-0.011510000000,-0.00144
,,,-0.011500000000,-0.00160
,,,-0.011490000000,-0.00152
,,,-0.011480000000,-0.00168
,,,-0.011470000000,-0.00144
,,,-0.011460000000,-0.00160
,,,-0.011450000000,-0.00152
,,,-0.011440000000,-0.00152
,,,-0.011430000000,-0.00136
,,,-0.011420000000,-0.00152
,,,-0.011410000000,-0.00160
,,,-0.011399998750,-0.00168
,,,-0.011390000000,-0.00144
,,,-0.011379998750,-0.00160
,,,-0.011370000000,-0.00144
,,,-0.011359998750,-0.00176
,,,-0.011349998750,-0.00144
,,,-0.011339998750,-0.00144
,,,-0.011329998750,-0.00160
,,,-0.011320000000,-0.00144
,,,-0.011309998750,-0.00144
,,,-0.011300000000,-0.00152
,,,-0.011290000000,-0.00144
,,,-0.011279998750,-0.00160
,,,-0.011270000000,-0.00160
,,,-0.011259998750,-0.00160
,,,-0.011250000000,-0.00176
,,,-0.011239998750,-0.00176
,,,-0.011229998750,-0.00144
,,,-0.011220000000,-0.00168
,,,-0.011209998750,-0.00144
,,,-0.011200000000,-0.00168
,,,-0.011190000000,-0.00160
,,,-0.011180000000,-0.00184
,,,-0.011170000000,-0.00160
,,,-0.011159998750,-0.00168
,,,-0.011150000000,-0.00144
,,,-0.011139998750,-0.00152
,,,-0.011130000000,-0.00128
,,,-0.011120000000,-0.00152
,,,-0.011110000000,-0.00144
,,,-0.011100000000,-0.00160
,,,-0.011090000000,-0.00152
,,,-0.011080000000,-0.00160
,,,-0.011070000000,-0.00176
,,,-0.011060000000,-0.00168
,,,-0.011050000000,-0.00144
,,,-0.011039998750,-0.00168
,,,-0.011030000000,-0.00160
,,,-0.011020000000,-0.00168
,,,-0.011010000000,-0.00152
,,,-0.011000000000,-0.00152
,,,-0.010990000000,-0.00128
,,,-0.010980000000,-0.00152
,,,-0.010970000000,-0.00176
,,,-0.010960000000,-0.00160
,,,-0.010950000000,-0.00144
,,,-0.010940000000,-0.00168
,,,-0.010930000000,-0.00160
,,,-0.010920000000,-0.00160
,,,-0.010910000000,-0.00160
,,,-0.010900000000,-0.00160
,,,-0.010890000000,-0.00144
,,,-0.010880000000,-0.00144
,,,-0.010870000000,-0.00168
,,,-0.010860000000,-0.00168
,,,-0.010850000000,-0.00160
,,,-0.010840000000,-0.00176
,,,-0.010830000000,-0.00144
,,,-0.010820000000,-0.00168
,,,-0.010810000000,-0.00152
,,,-0.010799998750,-0.00168
,,,-0.010790000000,-0.00144
,,,-0.010779998750,-0.00160
,,,-0.010770000000,-0.00152
,,,-0.010759998750,-0.00176
,,,-0.010750000000,-0.00168
,,,-0.010739998750,-0.00168
,,,-0.010729998750,-0.00152
,,,-0.010720000000,-0.00152
,,,-0.010709998750,-0.00144
,,,-0.010700000000,-0.00168
,,,-0.010690000000,-0.00144
,,,-0.010679998750,-0.00152
,,,-0.010670000000,-0.00136
,,,-0.010659998750,-0.00144
,,,-0.010650000000,-0.00152
,,,-0.010639998750,-0.00144
,,,-0.010630000000,-0.00160
,,,-0.010620000000,-0.00168
,,,-0.010609998750,-0.00144
,,,-0.010600000000,-0.00160
,,,-0.010590000000,-0.00152
,,,-0.010580000000,-0.00160
,,,-0.010570000000,-0.00160
,,,-0.010560000000,-0.00168
,,,-0.010550000000,-0.00136
,,,-0.010539998750,-0.00160
,,,-0.010530000000,-0.00152
,,,-0.010520000000,-0.00160
,,,-0.010510000000,-0.00144
,,,-0.010500000000,-0.00152
,,,-0.010490000000,-0.00152
,,,-0.010480000000,-0.00160
,,,-0.010470000000,-0.00144
,,,-0.010459999375,-0.00160
,,,-0.010450000000,-0.00144
,,,-0.010439999375,-0.00144
,,,-0.010430000000,-0.00144
,,,-0.010420000000,-0.00168
,,,-0.010409999375,-0.00152
,,,-0.010400000000,-0.00176
,,,-0.010390000625,-0.00136
,,,-0.010380000000,-0.00176
,,,-0.010370000000,-0.00152
,,,-0.010360000000,-0.00160
,,,-0.010350000000,-0.00168
,,,-0.010339999375,-0.00152
,,,-0.010330000000,-0.00144
,,,-0.010320000625,-0.00168
,,,-0.010310000000,-0.00160
,,,-0.010300000000,-0.00152
,,,-0.010290000625,-0.00168
,,,-0.010280000000,-0.00160
,,,-0.010270000625,-0.00144
,,,-0.010260000000,-0.00176
,,,-0.010250000000,-0.00144
,,,-0.010240000000,-0.00160
,,,-0.010230000000,-0.00144
,,,-0.010220000625,-0.00152
,,,-0.010210000000,-0.00144
,,,-0.010199999375,-0.00160
,,,-0.010190000000,-0.00160
,,,-0.010179999375,-0.00160
,,,-0.010169999375,-0.00152
,,,-0.010159999375,-0.00152
,,,-0.010149999375,-0.00160
,,,-0.010139998750,-0.00152
,,,-0.010129999375,-0.00152
,,,-0.010120000000,-0.00160
,,,-0.010109999375,-0.00168
,,,-0.010099999375,-0.00152
,,,-0.010090000000,-0.00152
,,,-0.010079999375,-0.00160
,,,-0.010070000000,-0.00120
,,,-0.010059999375,-0.00144
,,,-0.010050000000,-0.00152
,,,-0.010039999375,-0.00168
,,,-0.010029999375,-0.00152
,,,-0.010020000000,-0.00160
,,,-0.010009999375,-0.00176
,,,-0.010000000000,-0.00144
,,,-0.009990000000,-0.00144
,,,-0.009979999375,-0.00160
,,,-0.009970000000,-0.00144
,,,-0.009959999375,-0.00168
,,,-0.009950000000,-0.00144
,,,-0.009939999375,-0.00152
,,,-0.009930000000,-0.00152
,,,-0.009920000000,-0.00152
,,,-0.009909999375,-0.00168
,,,-0.009900000000,-0.00160
,,,-0.009890000625,-0.00152
,,,-0.009880000000,-0.00152
,,,-0.009870000000,-0.00144
,,,-0.009859999375,-0.00160
,,,-0.009850000000,-0.00152
,,,-0.009839999375,-0.00168
,,,-0.009830000000,-0.00144
,,,-0.009820000000,-0.00160
,,,-0.009810000000,-0.00152
,,,-0.009800000000,-0.00144
,,,-0.009790000625,-0.00144
,,,-0.009780000000,-0.00152
,,,-0.009770000625,-0.00152
,,,-0.009760000000,-0.00152
,,,-0.009750000000,-0.00160
,,,-0.009739999375,-0.00168
,,,-0.009730000000,-0.00152
,,,-0.009720000625,-0.00152
,,,-0.009710000000,-0.00152
,,,-0.009699999375,-0.00144
,,,-0.009690000000,-0.00136
,,,-0.009679999375,-0.00160
,,,-0.009669999375,-0.00160
,,,-0.009659998750,-0.00160
,,,-0.009649999375,-0.00160
,,,-0.009639998750,-0.00152
,,,-0.009629999375,-0.00152
,,,-0.009619999375,-0.00160
,,,-0.009609999375,-0.00144
,,,-0.009599999375,-0.00168
,,,-0.009590000000,-0.00144
,,,-0.009579999375,-0.00160
,,,-0.009570000000,-0.00160
,,,-0.009559999375,-0.00152
,,,-0.009549999375,-0.00160
,,,-0.009539999375,-0.00152
,,,-0.009529999375,-0.00160
,,,-0.009520000000,-0.00160
,,,-0.009509999375,-0.00152
,,,-0.009500000000,-0.00160
,,,-0.009490000000,-0.00128
,,,-0.009479999375,-0.00152
,,,-0.009470000000,-0.00160
,,,-0.009459999375,-0.00168
,,,-0.009450000000,-0.00144
,,,-0.009439999375,-0.00160
,,,-0.009429999375,-0.00160
,,,-0.009420000000,-0.00160
,,,-0.009409999375,-0.00144
,,,-0.009400000000,-0.00168
,,,-0.009390000000,-0.00128
,,,-0.009380000000,-0.00168
,,,-0.009370000000,-0.00160
,,,-0.009359999375,-0.00160
,,,-0.009350000000,-0.00144
,,,-0.009339999375,-0.00160
,,,-0.009330000000,-0.00176
,,,-0.009320000000,-0.00168
,,,-0.009309999375,-0.00136
,,,-0.009300000000,-0.00168
,,,-0.009290000625,-0.00144
,,,-0.009280000000,-0.00168
,,,-0.009270000000,-0.00144
,,,-0.009260000000,-0.00152
,,,-0.009250000000,-0.00160
,,,-0.009239999375,-0.00176
,,,-0.009230000000,-0.00160
,,,-0.009220000625,-0.00176
,,,-0.009210000000,-0.00160
,,,-0.009200000000,-0.00160
,,,-0.009190000625,-0.00160
,,,-0.009180000000,-0.00136
,,,-0.009170000625,-0.00176
,,,-0.009160000000,-0.00152
,,,-0.009150000000,-0.00152
,,,-0.009140000000,-0.00128
,,,-0.009130000000,-0.00144
,,,-0.009120000625,-0.00168
,,,-0.009110000000,-0.00144
,,,-0.009099999375,-0.00160
,,,-0.009090000000,-0.00160
,,,-0.009079999375,-0.00160
,,,-0.009069999375,-0.00152
,,,-0.009059999375,-0.00176
,,,-0.009049999375,-0.00160
,,,-0.009039998750,-0.00176
,,,-0.009029999375,-0.00168
,,,-0.009020000000,-0.00160
,,,-0.009009999375,-0.00152
,,,-0.008999999375,-0.00160
,,,-0.008990000000,-0.00160
,,,-0.008979999375,-0.00160
,,,-0.008970000000,-0.00160
,,,-0.008959999375,-0.00168
,,,-0.008950000000,-0.00152
,,,-0.008939999375,-0.00160
,,,-0.008929999375,-0.00160
,,,-0.008920000000,-0.00160
,,,-0.008909999375,-0.00160
,,,-0.008900000000,-0.00160
,,,-0.008890000000,-0.00160
,,,-0.008879999375,-0.00160
,,,-0.008870000000,-0.00160
,,,-0.008859999375,-0.00160
,,,-0.008850000000,-0.00160
,,,-0.008839999375,-0.00160
,,,-0.008830000000,-0.00152
,,,-0.008820000000,-0.00152
,,,-0.008809999375,-0.00168
,,,-0.008800000000,-0.00176
,,,-0.008790000625,-0.00136
,,,-0.008780000000,-0.00176
,,,-0.008770000000,-0.00152
,,,-0.008759999375,-0.00176
,,,-0.008750000000,-0.00160
,,,-0.008739999375,-0.00160
,,,-0.008730000000,-0.00128
,,,-0.008720000000,-0.00168
,,,-0.008710000000,-0.00152
,,,-0.008700000000,-0.00160
,,,-0.008690000625,-0.00152
,,,-0.008680000000,-0.00160
,,,-0.008670000625,-0.00168
,,,-0.008660000000,-0.00160
,,,-0.008650000000,-0.00160
,,,-0.008639999375,-0.00160
,,,-0.008630000000,-0.00128
,,,-0.008620000625,-0.00176
,,,-0.008610000000,-0.00144
,,,-0.008599999375,-0.00168
,,,-0.008590000000,-0.00160
,,,-0.008579999375,-0.00160
,,,-0.008569999375,-0.00160
,,,-0.008559998750,-0.00160
,,,-0.008549999375,-0.00176
,,,-0.008539998750,-0.00176
,,,-0.008529999375,-0.00144
,,,-0.008519999375,-0.00160
,,,-0.008509999375,-0.00160
,,,-0.008499999375,-0.00160
,,,-0.008490000000,-0.00144
,,,-0.008479999375,-0.00168
,,,-0.008470000000,-0.00160
,,,-0.008459999375,-0.00152
,,,-0.008449999375,-0.00152
,,,-0.008439999375,-0.00160
,,,-0.008429999375,-0.00152
,,,-0.008420000000,-0.00168
,,,-0.008409999375,-0.00144
,,,-0.008400000000,-0.00176
,,,-0.008390000000,-0.00152
,,,-0.008379999375,-0.00160
,,,-0.008370000000,-0.00160
,,,-0.008359999375,-0.00160
,,,-0.008350000000,-0.00160
,,,-0.008339999375,-0.00160
,,,-0.008329999375,-0.00168
,,,-0.008320000000,-0.00176
,,,-0.008309999375,-0.00128
,,,-0.008300000000,-0.00160
,,,-0.008290000000,-0.00160
,,,-0.008280000000,-0.00176
,,,-0.008270000000,-0.00160
,,,-0.008259999375,-0.00168
,,,-0.008250000000,-0.00160
,,,-0.008239999375,-0.00160
,,,-0.008230000000,-0.00144
,,,-0.008220000000,-0.00168
,,,-0.008209999375,-0.00152
,,,-0.008200000000,-0.00144
,,,-0.008190000625,-0.00144
,,,-0.008180000000,-0.00160
,,,-0.008170000000,-0.00152
,,,-0.008160000000,-0.00136
,,,-0.008150000000,-0.00168
,,,-0.008139999375,-0.00152
,,,-0.008130000000,-0.00160
,,,-0.008120000625,-0.00168
,,,-0.008110000000,-0.00160
,,,-0.008100000000,-0.00168
,,,-0.008090000625,-0.00168
,,,-0.008080000000,-0.00168
,,,-0.008070000625,-0.00160
,,,-0.008060000000,-0.00176
,,,-0.008050000000,-0.00152
,,,-0.008040000000,-0.00152
,,,-0.008030000000,-0.00144
,,,-0.008020000625,-0.00144
,,,-0.008010000000,-0.00136
,,,-0.007999999375,-0.00160
,,,-0.007990000000,-0.00160
,,,-0.007979999375,-0.00168
,,,-0.007969999375,-0.00144
